<svg xmlns="http://www.w3.org/2000/svg" width="14" height="14" viewBox="0 0 14 14">
    <path fill="#345EFF" fill-rule="evenodd" d="M5.351 7L.341 1.99A1.166 1.166 0 0 1 1.991.341L7 5.351l5.01-5.01a1.166 1.166 0 1 1 1.649 1.65L8.649 7l5.01 5.01a1.166 1.166 0 0 1-1.65 1.649L7 8.649l-5.01 5.01a1.166 1.166 0 1 1-1.649-1.65L5.351 7z"/>
</svg>
